{
    "_id": "456f1d32fcf67ad2575226957",
    "userId": "507f1f77bcf86cd799439011",
    "courseId": "527f1d77fcf86ad7994393411",
    "isPaid": true,
    "paymentMethod": "cash",
    "dateOfPayment": "2020-03-10T15:00:00.00Z"
}